{
    "imagesA": [
        {
            "imageURL": "./img/iPhone8.png",
            "desc": "Phones"
        },
        {
            "imageURL": "./img/iWatch.png",
            "desc": "Tablets and wearables"
        }
    ],
    "imagesB": [
        {
            "imageURL": "./img/iPhone8.png",
            "desc": "Phones"
        },
        {
            "imageURL": "./img/iWatch.png",
            "desc": "Tablets and wearables"
        },
        {
            "imageURL": "./img/sim.png",
            "desc": "Bring your own deivces"
        }
    ],
    "productName": "T-Mobile® 3-in-1 SIM Starter kit",
    "productListTitle": "DEVICE SIM CARD TYPES",
    "productListItems": [
        {
            "title": "For Phones"
        },
        {
            "title": "For Tablets and wearables"
        }
    ],
    "productDescription": "The 3-in-1 SIM Starter Kit includes a Nano SIM card with Micro and Standard SIM adapters. For use with unlocked, compatible GSM phones. No SiM card activation required. Once you receive your SIM card in the mail, simply it into your phone and you're ready to go.",
    "productPrice": "25.00",
    "productImageURL": "./img/sim.png"
}
