<svg width="24" height="24" viewBox="0 0 24 24" fill="none" xmlns="http://www.w3.org/2000/svg">
<path fill-rule="evenodd" clip-rule="evenodd" d="M20.3945 10.8169V8.39437H15.6058V3.60563H13.1833V8.39437H8.39453V10.8169H13.1833V15.6056H15.6058V10.8169H20.3945ZM21.6338 0C22.2723 0 22.8263 0.234739 23.2958 0.704225C23.7653 1.17371 24 1.7277 24 2.3662V16.7887C24 17.4272 23.7653 17.9906 23.2958 18.4789C22.8263 18.9671 22.2723 19.2113 21.6338 19.2113H7.21127C6.57277 19.2113 6.00939 18.9671 5.52113 18.4789C5.03286 17.9906 4.78873 17.4272 4.78873 16.7887V2.3662C4.78873 1.7277 5.03286 1.17371 5.52113 0.704225C6.00939 0.234739 6.57277 0 7.21127 0H21.6338ZM2.3662 4.78873V21.6338H19.2113V24H2.3662C1.7277 24 1.17371 23.7653 0.704225 23.2958C0.234739 22.8263 0 22.2723 0 21.6338V4.78873H2.3662Z" fill="black"/>
</svg>
