{
	"title":"Tell us about the condition of your old device:",
    "phoneTitle":"Select the phone number you’d like to use on your watch.",
	"details": [
		{
			"imgUrl": "./img/mobile-animation-standalone.svg",
			"animImg":"./img/gif/mobile-animation-standalone.gif",
			"title": "Get a new number (standalone)",
			"desc": "Call and text from the watch without a paired phone.",
			"subtitle": "",
			"totalAmtToday": "10",
			"desc1": "New line on <a class='text-decoration-underline'>Standalone Apple Watch Plan</a> with Autopay. Taxes and fees excluded.",
			"disabled": false,
			"errorMsg": "",
			"standalone":true
		},
		{
			"imgUrl": "",
			"title": "Use a number I already have (paired)",
			"desc": "Calls and texts will come to both your watch and your phone, so you can stay connected even if you don’t have your phone with you.",
			"subtitle": "",
			"valid": true,
			"totalAmtToday": "10",
			"desc1": "New line on <a class='text-decoration-underline'>Apple Data  Paired DIGITS TE</a> with Autopay. Taxes and fees excluded.",
      "disabled": true,
			"errorMsg": "This line has reached the five-device limit. Please choose another line or <a class='text-decoration-underline error cursor-enable' href =''>contact us.</a>"
		}
	],
	"phonelist": [
			{
					"name": "Eric",
					"phone": "(206) 555-1111",
					"notEligible": false,
					"limitError": false,
					"message": "",
					"checked": true
			},
			{
					"name": "Bob",
					"phone": "(206) 555-2222",
					"notEligible": true,
					"limitError": false,
					"message": "This line has reached the five-device limit. Please choose another line or",
					"checked": false
			},
			{
					"name": "Natasha",
					"phone": "(206) 555-3333",
					"notEligible": false,
					"limitError": false,
					"message": "",
					"checked": false
			},
			{
					"name": "John",
					"phone": "(206) 555-3333",
					"notEligible": false,
					"limitError": false,
					"message": "",
					"checked": false
			}
	]
}
