{ "WithEIP":[
    {"imageURL": "./img/Beats.png", "name": "Beats Solo3 Wireless On-Ear Headphones", "color":"Defiant Red", "price": "299.99", "storeLocation":"Downtown - Seattle", "distance": "0.2", "content" : "$XXX.XX upfront $XX.XX x XX mos.IF YOU CANCEL WIRELESS SERVICE, REMAINING BALANCE ON PHONE BECOMES DUE. 0% APR O.A.C. to well-qualified customer. Qualifying service req'd. ", "stock": "instock" },
    {"imageURL": "./img/Beats.png", "name": "Beats Solo3 Wireless On-Ear Headphones", "color":"Defiant Red", "price": "299.99", "storeLocation":"Costco Wireless Advocates Palm Desert", "distance": "0.2", "content" : "$XXX.XX upfront $XX.XX x XX mos.IF YOU CANCEL WIRELESS SERVICE, REMAINING BALANCE ON PHONE BECOMES DUE. 0% APR O.A.C. to well-qualified customer. Qualifying service req'd. ", "stock" : "instock" },
    {"imageURL": "./img/Beats.png", "name": "Beats Solo3 Wireless On-Ear Headphones", "color":"Defiant Red", "price": "299.99", "storeLocation":"Downtown - Seattle", "distance": "0.2", "content" : "$XXX.XX upfront $XX.XX x XX mos.IF YOU CANCEL WIRELESS SERVICE, REMAINING BALANCE ON PHONE BECOMES DUE. 0% APR O.A.C. to well-qualified customer. Qualifying service req'd. ", "stock" : "outofstock" },
    {"imageURL": "./img/Beats.png", "name": "Beats Solo3 Wireless On-Ear Headphones", "color":"Defiant Red", "price": "299.99", "storeLocation":"Downtown - Seattle", "distance": "0.2", "content" : "$XXX.XX upfront $XX.XX x XX mos.IF YOU CANCEL WIRELESS SERVICE, REMAINING BALANCE ON PHONE BECOMES DUE. 0% APR O.A.C. to well-qualified customer. Qualifying service req'd. ", "stock" : "backorder" },
    {"imageURL": "./img/Beats.png", "name": "Beats Solo3 Wireless On-Ear Headphones", "color":"Defiant Red", "price": "299.99", "storeLocation":"Downtown - Seattle", "distance": "0.2", "content" : "$XXX.XX upfront $XX.XX x XX mos.IF YOU CANCEL WIRELESS SERVICE, REMAINING BALANCE ON PHONE BECOMES DUE. 0% APR O.A.C. to well-qualified customer. Qualifying service req'd. ", "stock" : "fewleft" },
    {"imageURL": "./img/Beats.png", "name": "Beats Solo3 Wireless On-Ear Headphones", "color":"Defiant Red", "price": "299.99", "storeLocation":"Downtown - Seattle", "distance": "0.2", "content" : "$XXX.XX upfront $XX.XX x XX mos.IF YOU CANCEL WIRELESS SERVICE, REMAINING BALANCE ON PHONE BECOMES DUE. 0% APR O.A.C. to well-qualified customer. Qualifying service req'd. ", "stock" : "nostore" }
   
],
"NoEIP":[
    {"imageURL": "./img/Beats.png", "name": "Beats Solo3 Wireless On-Ear Headphones", "color":"Defiant Red", "price1": "0.99", "price2":"14.59", "storeLocation": "Downtown - Seattle", "distance": "0.2", "content": "$XXX.XX upfront $XX.XX x XX mos.IF YOU CANCEL WIRELESS SERVICE, REMAINING BALANCE ON PHONE BECOMES DUE. 0% APR O.A.C. to well-qualified customer. Qualifying service req'd. ", "stock": "instock" },
    {"imageURL": "./img/Beats.png", "name": "Beats Solo3 Wireless On-Ear Headphones", "color":"Defiant Red", "price1": "0.99", "price2":"14.59", "storeLocation": "Costco Wireless Advocates Palm Desert", "distance": "0.2", "content": "$XXX.XX upfront $XX.XX x XX mos.IF YOU CANCEL WIRELESS SERVICE, REMAINING BALANCE ON PHONE BECOMES DUE. 0% APR O.A.C. to well-qualified customer. Qualifying service req'd. ", "stock" : "instock"},
    {"imageURL": "./img/Beats.png", "name": "Beats Solo3 Wireless On-Ear Headphones", "color":"Defiant Red", "price1": "0.99", "price2":"14.59", "storeLocation": "Downtown - Seattle", "distance": "0.2", "content": "$XXX.XX upfront $XX.XX x XX mos.IF YOU CANCEL WIRELESS SERVICE, REMAINING BALANCE ON PHONE BECOMES DUE. 0% APR O.A.C. to well-qualified customer. Qualifying service req'd. ", "stock" : "outofstock"},
    {"imageURL": "./img/Beats.png", "name": "Beats Solo3 Wireless On-Ear Headphones", "color":"Defiant Red", "price1": "0.99", "price2":"14.59", "storeLocation": "Downtown - Seattle", "distance": "0.2", "content": "$XXX.XX upfront $XX.XX x XX mos.IF YOU CANCEL WIRELESS SERVICE, REMAINING BALANCE ON PHONE BECOMES DUE. 0% APR O.A.C. to well-qualified customer. Qualifying service req'd. ", "stock" : "backorder"},
    {"imageURL": "./img/Beats.png", "name": "Beats Solo3 Wireless On-Ear Headphones", "color":"Defiant Red", "price1": "0.99", "price2":"14.59", "storeLocation": "Downtown - Seattle", "distance": "0.2", "content": "$XXX.XX upfront $XX.XX x XX mos.IF YOU CANCEL WIRELESS SERVICE, REMAINING BALANCE ON PHONE BECOMES DUE. 0% APR O.A.C. to well-qualified customer. Qualifying service req'd. ", "stock" : "fewleft"},
    {"imageURL": "./img/Beats.png", "name": "Beats Solo3 Wireless On-Ear Headphones", "color":"Defiant Red", "price1": "0.99", "price2":"14.59", "storeLocation": "Downtown - Seattle", "distance": "0.2", "content": "$XXX.XX upfront $XX.XX x XX mos.IF YOU CANCEL WIRELESS SERVICE, REMAINING BALANCE ON PHONE BECOMES DUE. 0% APR O.A.C. to well-qualified customer. Qualifying service req'd. ", "stock" : "nostore"}
]}