<svg xmlns="http://www.w3.org/2000/svg"  viewBox="0 0 46 28">
    <g fill="none" fill-rule="evenodd">
        <path fill="#CCC" d="M42.5 28h-39C1.57 28 0 26.43 0 24.5v-21C0 1.57 1.57 0 3.5 0h39C44.43 0 46 1.57 46 3.5v21c0 1.93-1.57 3.5-3.5 3.5"/>
        <path fill="#FFF" d="M3.5 1A2.503 2.503 0 0 0 1 3.5v21C1 25.878 2.121 27 3.5 27h39c1.379 0 2.5-1.122 2.5-2.5v-21C45 2.122 43.879 1 42.5 1h-39z"/>
        <path fill="#CCC" d="M4.978 23.797h6.533v-1H4.978zM12.891 23.797h6.534v-1h-6.534zM20.805 23.797h6.533v-1h-6.533zM4.977 11.401h28.132v-1H4.977zM34.489 11.401h6.533v-1h-6.533zM34.489 5.203h6.533v-1h-6.533zM23.699 17.599h17.323v-1H23.699zM4.978 17.599h17.323v-1H4.978z"/>
    </g>
</svg>
