<?xml version="1.0" encoding="UTF-8"?>
<svg width="16px" height="14px" viewBox="0 0 20 20" version="1.1" xmlns="http://www.w3.org/2000/svg" xmlns:xlink="http://www.w3.org/1999/xlink">
    <!-- Generator: Sketch 47.1 (45422) - http://www.bohemiancoding.com/sketch -->
    <title>validated</title>
    <desc>Created with Sketch.</desc>
    <defs></defs>
    <g id="Iconography" stroke="none" stroke-width="1" fill="none" fill-rule="evenodd">
        <g transform="translate(-319.000000, -489.000000)" id="black-icons">
            <g transform="translate(82.000000, 487.000000)">
                <g id="validated" transform="translate(235.000000, 0.000000)">
                    <rect id="bounding-box" x="0" y="0" width="24" height="24"></rect>
                    <path d="M12,20 C7.6,20 4,16.4 4,12 C4,7.6 7.6,4 12,4 C16.4,4 20,7.6 20,12 C20,16.4 16.4,20 12,20 M12,2 C6.5,2 2,6.5 2,12 C2,17.5 6.5,22 12,22 C17.5,22 22,17.5 22,12 C22,6.5 17.5,2 12,2" id="Fill-1" fill="#008000"></path>
                    <polygon id="Fill-3" fill="#008000" points="16.699949 8.5 10.4142347 14.7857143 7.89994898 12.2714286 6.64280612 13.5285714 10.4142347 17.3 17.9561939 9.75714286"></polygon>
                </g>
            </g>
        </g>
    </g>
</svg>