{
    "reviews": [
        {
            "title": "REVIEW TITLE LOREM IPSUM",
            "username": "Username",
            "stars": "3",
            "date": "JAN 15 2018",
            "from": "US",
            "description": "Lorem ipsum dolor sit amet, consectetur adipiscing elit, sed do eiusmod tempor incididunt ut labore et dolore magna aliqua. Ut enim ad minim veniam, quis nostrud exercitation ullamco laboris nisi ut aliquip ex ea commodo consequat. Duis aute irure dolor in reprehenderit in voluptate velit esse cillum dolore eu fugiat nulla pariatur. Excepteur sint occaecat cupidatat non proident, sunt in culpa qui officia deserunt mollit anim id est laborum",
            "helpfulCount": 1,
            "unhelpfulCount": 1
        },
        {
            "title": "REVIEW TITLE LOREM IPSUM",
            "username": "Username",
            "stars": "4",
            "date": "SEP 1 2018",
            "from": "US",
            "description": "Lorem ipsum dolor sit amet, consectetur adipiscing elit, sed do eiusmod tempor incididunt ut labore et dolore magna aliqua. Ut enim ad minim veniam, quis nostrud exercitation ullamco laboris nisi ut aliquip ex ea commodo consequat. Duis aute irure dolor in reprehenderit in voluptate velit esse cillum dolore eu fugiat nulla pariatur. Excepteur sint occaecat cupidatat non proident, sunt in culpa qui officia deserunt mollit anim id est laborum",
            "helpfulCount": 6,
            "unhelpfulCount": 3
        },
         {
            "title": "REVIEW TITLE LOREM IPSUM",
            "username": "Username",
            "stars": "3",
            "date": "SEP 1 2017",
            "from": "US",
            "description": "Lorem ipsum dolor sit amet, consectetur adipiscing elit, sed do eiusmod tempor incididunt ut labore et dolore magna aliqua. Ut enim ad minim veniam, quis nostrud exercitation ullamco laboris nisi ut aliquip ex ea commodo consequat. Duis aute irure dolor in reprehenderit in voluptate velit esse cillum dolore eu fugiat nulla pariatur. Excepteur sint occaecat cupidatat non proident, sunt in culpa qui officia deserunt mollit anim id est laborum",
            "helpfulCount": 6,
            "unhelpfulCount": 3
        },
         {
            "title": "REVIEW TITLE LOREM IPSUM",
            "username": "Username",
            "stars": "1",
            "date": "SEP 1 2016",
            "from": "US",
            "description": "Lorem ipsum dolor sit amet, consectetur adipiscing elit, sed do eiusmod tempor incididunt ut labore et dolore magna aliqua. Ut enim ad minim veniam, quis nostrud exercitation ullamco laboris nisi ut aliquip ex ea commodo consequat. Duis aute irure dolor in reprehenderit in voluptate velit esse cillum dolore eu fugiat nulla pariatur. Excepteur sint occaecat cupidatat non proident, sunt in culpa qui officia deserunt mollit anim id est laborum",
            "helpfulCount": 6,
            "unhelpfulCount": 2
        },
         {
            "title": "REVIEW TITLE LOREM IPSUM",
            "username": "Username",
            "stars": "4",
            "date": "SEP 1 2013",
            "from": "US",
            "description": "Lorem ipsum dolor sit amet, consectetur adipiscing elit, sed do eiusmod tempor incididunt ut labore et dolore magna aliqua. Ut enim ad minim veniam, quis nostrud exercitation ullamco laboris nisi ut aliquip ex ea commodo consequat. Duis aute irure dolor in reprehenderit in voluptate velit esse cillum dolore eu fugiat nulla pariatur. Excepteur sint occaecat cupidatat non proident, sunt in culpa qui officia deserunt mollit anim id est laborum",
            "helpfulCount": 3,
            "unhelpfulCount": 1
        },
        {
            "title": "REVIEW TITLE LOREM IPSUM",
            "username": "Username",
            "stars": "2",
            "date": "FEB 4 2018",
            "from": "US",
            "description": "Lorem ipsum dolor sit amet, consectetur adipiscing elit, sed do eiusmod tempor incididunt ut labore et dolore magna aliqua. Ut enim ad minim veniam, quis nostrud exercitation ullamco laboris nisi ut aliquip ex ea commodo consequat. Duis aute irure dolor in reprehenderit in voluptate velit esse cillum dolore eu fugiat nulla pariatur. Excepteur sint occaecat cupidatat non proident, sunt in culpa qui officia deserunt mollit anim id est laborum",
            "helpfulCount": 6,
            "unhelpfulCount": 4
        },
        {
            "title": "REVIEW TITLE LOREM IPSUM",
            "username": "Username",
            "stars": "3",
            "date": "MAY 20 2018",
            "from": "US",
            "description": "Lorem ipsum dolor sit amet, consectetur adipiscing elit, sed do eiusmod tempor incididunt ut labore et dolore magna aliqua. Ut enim ad minim veniam, quis nostrud exercitation ullamco laboris nisi ut aliquip ex ea commodo consequat. Duis aute irure dolor in reprehenderit in voluptate velit esse cillum dolore eu fugiat nulla pariatur. Excepteur sint occaecat cupidatat non proident, sunt in culpa qui officia deserunt mollit anim id est laborum",
            "helpfulCount": 4,
            "unhelpfulCount": 5
        },
        {
            "title": "REVIEW TITLE LOREM IPSUM",
            "username": "Username",
            "stars": "1",
            "date": "SEP 10 2018",
            "from": "US",
            "description": "Lorem ipsum dolor sit amet, consectetur adipiscing elit, sed do eiusmod tempor incididunt ut labore et dolore magna aliqua. Ut enim ad minim veniam, quis nostrud exercitation ullamco laboris nisi ut aliquip ex ea commodo consequat. Duis aute irure dolor in reprehenderit in voluptate velit esse cillum dolore eu fugiat nulla pariatur. Excepteur sint occaecat cupidatat non proident, sunt in culpa qui officia deserunt mollit anim id est laborum",
            "helpfulCount": 13,
            "unhelpfulCount": 5
        },
        {
            "title": "REVIEW TITLE LOREM IPSUM",
            "username": "Username",
            "stars": "4",
            "date": "SEP 3 2018",
            "from": "US",
            "description": "Lorem ipsum dolor sit amet, consectetur adipiscing elit, sed do eiusmod tempor incididunt ut labore et dolore magna aliqua. Ut enim ad minim veniam, quis nostrud exercitation ullamco laboris nisi ut aliquip ex ea commodo consequat. Duis aute irure dolor in reprehenderit in voluptate velit esse cillum dolore eu fugiat nulla pariatur. Excepteur sint occaecat cupidatat non proident, sunt in culpa qui officia deserunt mollit anim id est laborum",
            "helpfulCount": 10,
            "unhelpfulCount": 31
        },
        {
            "title": "REVIEW TITLE LOREM IPSUM",
            "username": "Username",
            "stars": "5",
            "date": "JUL 4 2018",
            "from": "US",
            "description": "Lorem ipsum dolor sit amet, consectetur adipiscing elit, sed do eiusmod tempor incididunt ut labore et dolore magna aliqua. Ut enim ad minim veniam, quis nostrud exercitation ullamco laboris nisi ut aliquip ex ea commodo consequat. Duis aute irure dolor in reprehenderit in voluptate velit esse cillum dolore eu fugiat nulla pariatur. Excepteur sint occaecat cupidatat non proident, sunt in culpa qui officia deserunt mollit anim id est laborum",
            "helpfulCount": 4,
            "unhelpfulCount": 8
        },
        {
            "title": "REVIEW TITLE LOREM IPSUM",
            "username": "Username",
            "stars": "5",
            "date": "SEP 20 2018",
            "from": "US",
            "description": "Lorem ipsum dolor sit amet, consectetur adipiscing elit, sed do eiusmod tempor incididunt ut labore et dolore magna aliqua. Ut enim ad minim veniam, quis nostrud exercitation ullamco laboris nisi ut aliquip ex ea commodo consequat. Duis aute irure dolor in reprehenderit in voluptate velit esse cillum dolore eu fugiat nulla pariatur. Excepteur sint occaecat cupidatat non proident, sunt in culpa qui officia deserunt mollit anim id est laborum",
            "helpfulCount": 3,
            "unhelpfulCount": 8
        },
        {
            "title": "REVIEW TITLE LOREM IPSUM",
            "username": "Username",
            "stars": "2",
            "date": "NOV 5 2018",
            "from": "US",
            "description": "Lorem ipsum dolor sit amet, consectetur adipiscing elit, sed do eiusmod tempor incididunt ut labore et dolore magna aliqua. Ut enim ad minim veniam, quis nostrud exercitation ullamco laboris nisi ut aliquip ex ea commodo consequat. Duis aute irure dolor in reprehenderit in voluptate velit esse cillum dolore eu fugiat nulla pariatur. Excepteur sint occaecat cupidatat non proident, sunt in culpa qui officia deserunt mollit anim id est laborum",
            "helpfulCount": 4,
            "unhelpfulCount": 1
        },
        {
            "title": "REVIEW TITLE LOREM IPSUM",
            "username": "Username",
            "stars": "3",
            "date": "SEP 3 2018",
            "from": "US",
            "description": "Lorem ipsum dolor sit amet, consectetur adipiscing elit, sed do eiusmod tempor incididunt ut labore et dolore magna aliqua. Ut enim ad minim veniam, quis nostrud exercitation ullamco laboris nisi ut aliquip ex ea commodo consequat. Duis aute irure dolor in reprehenderit in voluptate velit esse cillum dolore eu fugiat nulla pariatur. Excepteur sint occaecat cupidatat non proident, sunt in culpa qui officia deserunt mollit anim id est laborum",
            "helpfulCount": 3,
            "unhelpfulCount": 5
        },
        {
            "title": "REVIEW TITLE LOREM IPSUM",
            "username": "Username",
            "stars": "4",
            "date": "SEP 6 2018",
            "from": "US",
            "description": "Lorem ipsum dolor sit amet, consectetur adipiscing elit, sed do eiusmod tempor incididunt ut labore et dolore magna aliqua. Ut enim ad minim veniam, quis nostrud exercitation ullamco laboris nisi ut aliquip ex ea commodo consequat. Duis aute irure dolor in reprehenderit in voluptate velit esse cillum dolore eu fugiat nulla pariatur. Excepteur sint occaecat cupidatat non proident, sunt in culpa qui officia deserunt mollit anim id est laborum",
            "helpfulCount": 5,
            "unhelpfulCount": 3
        },
        {
            "title": "REVIEW TITLE LOREM IPSUM",
            "username": "Username",
            "stars": "1",
            "date": "SEP 23 2018",
            "from": "US",
            "description": "Lorem ipsum dolor sit amet, consectetur adipiscing elit, sed do eiusmod tempor incididunt ut labore et dolore magna aliqua. Ut enim ad minim veniam, quis nostrud exercitation ullamco laboris nisi ut aliquip ex ea commodo consequat. Duis aute irure dolor in reprehenderit in voluptate velit esse cillum dolore eu fugiat nulla pariatur. Excepteur sint occaecat cupidatat non proident, sunt in culpa qui officia deserunt mollit anim id est laborum",
            "helpfulCount": 5,
            "unhelpfulCount": 3
        }
    ]
}